simulation/qsim/IC74HC151.msim.vcd
$comment
	File created using the following command:
		vcd file IC74HC151.msim.vcd -direction
$end
$date
	Thu Oct 17 20:09:11 2019
$end
$version
	ModelSim Version 10.1d
$end
$timescale
	1ps
$end
$scope module IC74HC151_vlg_vec_tst $end
$var reg 1 ! EN_Part $end
$var reg 3 " SelectPart [2:0] $end
$var reg 8 # Single_Part [7:0] $end
$var wire 1 $ Y $end
$var wire 1 % YF $end
$var wire 1 & sampler $end
$scope module i1 $end
$var wire 1 ' gnd $end
$var wire 1 ( vcc $end
$var wire 1 ) unknown $end
$var tri1 1 * devclrn $end
$var tri1 1 + devpor $end
$var tri1 1 , devoe $end
$var wire 1 - Y~output_o $end
$var wire 1 . YF~output_o $end
$var wire 1 / Single_Part[5]~input_o $end
$var wire 1 0 SelectPart[0]~input_o $end
$var wire 1 1 Single_Part[6]~input_o $end
$var wire 1 2 SelectPart[1]~input_o $end
$var wire 1 3 Single_Part[4]~input_o $end
$var wire 1 4 Mux0~0_combout $end
$var wire 1 5 Single_Part[7]~input_o $end
$var wire 1 6 Mux0~1_combout $end
$var wire 1 7 Single_Part[2]~input_o $end
$var wire 1 8 Single_Part[1]~input_o $end
$var wire 1 9 Single_Part[0]~input_o $end
$var wire 1 : Mux0~2_combout $end
$var wire 1 ; Single_Part[3]~input_o $end
$var wire 1 < Mux0~3_combout $end
$var wire 1 = SelectPart[2]~input_o $end
$var wire 1 > EN_Part~input_o $end
$var wire 1 ? Mux0~4_combout $end
$upscope $end
$upscope $end
$enddefinitions $end
#0
$dumpvars
1!
bz "
b0 #
0$
1%
x&
0'
1(
x)
1*
1+
1,
0-
1.
0/
z0
01
z2
03
x4
05
x6
07
08
09
x:
0;
x<
z=
1>
0?
$end
#10000
b10000000 #
b10100000 #
b10101000 #
b10101010 #
18
1;
1/
15
0&
#20000
b0zz "
b0z "
b0 "
00
02
0=
1&
0:
04
0<
06
#30000
b1 "
10
0&
1:
16
1<
#40000
b11 "
b10 "
00
12
1&
0:
06
0<
#50000
b11 "
10
0&
1:
16
14
1<
#60000
b111 "
b101 "
b100 "
00
02
1=
1&
0:
04
0<
06
#70000
b101 "
10
0&
1:
16
1<
#80000
0!
b111 "
b110 "
0>
00
12
1&
0:
06
1?
0<
1-
0.
1$
0%
0?
0-
1.
0$
1%
#90000
b111 "
10
0&
1:
16
14
1<
1?
1-
0.
1$
0%
#100000
b11 "
b1 "
b0 "
00
02
0=
1&
0:
04
0<
06
0?
0-
1.
0$
1%
#110000
b1 "
10
0&
1:
16
1<
1?
1-
0.
1$
0%
#120000
b11 "
b10 "
00
12
1&
0:
06
0<
0?
0-
1.
0$
1%
#130000
b11 "
10
0&
1:
16
14
1<
1?
1-
0.
1$
0%
#140000
b111 "
b101 "
b100 "
00
02
1=
1&
0:
04
0<
06
0?
0-
1.
0$
1%
#150000
b101 "
10
0&
1:
16
1<
1?
1-
0.
1$
0%
#160000
b111 "
b110 "
00
12
1&
0:
06
0<
0?
0-
1.
0$
1%
#170000
b111 "
10
0&
1:
16
14
1<
1?
1-
0.
1$
0%
#180000
b101010 #
b1010 #
b10 #
b0 #
b11 "
b1 "
b0 "
00
02
0=
08
0;
0/
05
1&
0:
04
0<
06
0?
0-
1.
0$
1%
